Digitales2/Proyecto/misc/Buffer/simulation.vcd
$date
	Sat Jun 30 22:25:28 2018
$end
$version
	Icarus Verilog
$end
$timescale
	100ps
$end
$scope module testbench $end
$var wire 1 ! wRESET $end
$var wire 1 " WRITE $end
$var wire 1 # Valid $end
$var wire 1 $ READ $end
$var wire 8 % DATA_IN [7:0] $end
$var wire 1 & CLK $end
$var wire 1 ' BIG $end
$scope module prob $end
$var reg 1 ' BIG $end
$var reg 1 & CLK $end
$var reg 8 ( DATA_IN [7:0] $end
$var reg 1 $ READ $end
$var reg 1 ! RESET $end
$var reg 1 # Valid $end
$var reg 1 " WRITE $end
$upscope $end
$scope module uut_cond $end
$var wire 1 ' BIG $end
$var wire 1 & CLK $end
$var wire 8 ) DATA_IN [7:0] $end
$var wire 1 $ READ $end
$var wire 1 ! RESET $end
$var wire 1 # Valid $end
$var wire 1 " WRITE $end
$var reg 8 * DATA_OUT [7:0] $end
$var reg 1 + Empty $end
$var reg 1 , ErrNoData $end
$var reg 1 - ErrStackOverflow $end
$var reg 1 . Full $end
$var reg 1 / almost_Empty $end
$var reg 1 0 almost_Full $end
$var reg 128 1 rBuffer [127:0] $end
$var reg 8 2 rCurrentState [7:0] $end
$upscope $end
$upscope $end
$enddefinitions $end
#0
$dumpvars
bx 2
bx 1
x0
x/
x.
x-
x,
x+
bx *
bx )
bx (
1'
1&
bx %
0$
0#
0"
0!
$end
#10
0&
#20
1!
1&
#30
0&
#40
0.
0+
0,
0-
0/
00
b0 1
b0 2
1&
#50
0&
#60
0!
1&
#70
0&
#80
b11111111 %
b11111111 (
b11111111 )
1&
#90
0&
#100
b10101010 %
b10101010 (
b10101010 )
1#
1"
1&
#110
0&
#120
1+
b1 2
b10101010 1
b10111011 %
b10111011 (
b10111011 )
1&
#130
0&
#140
b11001100 %
b11001100 (
b11001100 )
0+
b10 2
b1011101110101010 1
1&
#150
0&
#160
b11 2
b110011001011101110101010 1
1$
b11011101 %
b11011101 (
b11011101 )
1&
#170
0&
#180
b11101110 %
b11101110 (
b11101110 )
b110111011100110010111011 1
b10101010 *
1&
#190
0&
#200
b111011101101110111001100 1
b10111011 *
0$
1&
#210
0&
#220
b100 2
b11101110111011101101110111001100 1
1&
#230
0&
#240
b101 2
b1110111011101110111011101101110111001100 1
1&
#250
0&
#260
b10100110 %
b10100110 (
b10100110 )
1$
b110 2
b111011101110111011101110111011101101110111001100 1
1&
#270
0&
#280
b101001101110111011101110111011101110111011011101 1
b11001100 *
b111001 %
b111001 (
b111001 )
1&
#290
0&
#300
b10101000 %
b10101000 (
b10101000 )
b1110011010011011101110111011101110111011101110 1
b11011101 *
1&
#310
0&
#320
b101010000011100110100110111011101110111011101110 1
b11101110 *
b11111001 %
b11111001 (
b11111001 )
0$
1&
#330
0&
#340
b1001111 %
b1001111 (
b1001111 )
b111 2
b11111001101010000011100110100110111011101110111011101110 1
1&
#350
0&
#360
b1000 2
b100111111111001101010000011100110100110111011101110111011101110 1
1&
#370
0&
#380
b1001 2
b10011110100111111111001101010000011100110100110111011101110111011101110 1
1&
#390
0&
#400
b1010 2
b1001111010011110100111111111001101010000011100110100110111011101110111011101110 1
1&
#410
0&
#420
b1011 2
b100111101001111010011110100111111111001101010000011100110100110111011101110111011101110 1
1&
#430
0&
#440
b1100 2
b10011110100111101001111010011110100111111111001101010000011100110100110111011101110111011101110 1
1&
#450
0&
#460
b1101 2
b1001111010011110100111101001111010011110100111111111001101010000011100110100110111011101110111011101110 1
1&
#470
0&
#480
10
b1110 2
b100111101001111010011110100111101001111010011110100111111111001101010000011100110100110111011101110111011101110 1
b11111001 %
b11111001 (
b11111001 )
1$
1&
#490
0&
#500
b11111101 %
b11111101 (
b11111101 )
b1111100101001111010011110100111101001111010011110100111101001111111110011010100000111001101001101110111011101110 1
1&
#510
0&
#520
b1111110111111001010011110100111101001111010011110100111101001111010011111111100110101000001110011010011011101110 1
b11111111 %
b11111111 (
b11111111 )
1&
#530
0&
#540
b11110000 %
b11110000 (
b11110000 )
b1111111111111101111110010100111101001111010011110100111101001111010011110100111111111001101010000011100110100110 1
1&
#550
0&
#560
b1111000011111111111111011111100101001111010011110100111101001111010011110100111101001111111110011010100000111001 1
b10100110 *
1&
#570
0&
#580
b1111000011110000111111111111110111111001010011110100111101001111010011110100111101001111010011111111100110101000 1
b111001 *
1&
#590
0&
#600
b1111000011110000111100001111111111111101111110010100111101001111010011110100111101001111010011110100111111111001 1
b10101000 *
1&
#610
0&
#620
0"
b1111000011110000111100001111000011111111111111011111100101001111010011110100111101001111010011110100111101001111 1
b11111001 *
1&
#630
0&
#640
b1101 2
b1111000011110000111100001111000011110000111111111111110111111001010011110100111101001111010011110100111101001111 1
b1001111 *
1&
#650
0&
#660
b1100 2
b1111000011110000111100001111000011110000111100001111111111111101111110010100111101001111010011110100111101001111 1
1&
#670
0&
#680
b1011 2
b1111000011110000111100001111000011110000111100001111000011111111111111011111100101001111010011110100111101001111 1
1&
#690
0&
#700
00
b1010 2
b1111000011110000111100001111000011110000111100001111000011110000111111111111110111111001010011110100111101001111 1
1&
#710
0&
#720
b1001 2
b1111000011110000111100001111000011110000111100001111000011110000111100001111111111111101111110010100111101001111 1
1&
#730
0&
#740
b1000 2
b1111000011110000111100001111000011110000111100001111000011110000111100001111000011111111111111011111100101001111 1
1&
#750
0&
#760
b111 2
b1111000011110000111100001111000011110000111100001111000011110000111100001111000011110000111111111111110111111001 1
1&
#770
0&
#780
b110 2
b1111000011110000111100001111000011110000111100001111000011110000111100001111000011110000111100001111111111111101 1
b11111001 *
1&
#790
0&
#800
b101 2
b1111000011110000111100001111000011110000111100001111000011110000111100001111000011110000111100001111000011111111 1
b11111101 *
1&
#810
0&
#820
b100 2
b1111000011110000111100001111000011110000111100001111000011110000111100001111000011110000111100001111000011110000 1
b11111111 *
1&
#830
0&
#840
b11 2
b11110000 *
1&
#850
0&
#860
b10 2
1&
#870
0&
#880
b1 2
1&
#890
0&
#900
b0 2
1&
#910
0&
#920
1+
1,
1&
