Digitales2/Proyecto/old/miscelaneos/pcie/simulation.vcd
$date
	Wed May 30 08:51:15 2018
$end
$version
	Icarus Verilog
$end
$timescale
	100ps
$end
$scope module pruebas_pcie $end
$var wire 1 ! reset $end
$var wire 1 " Valid $end
$var wire 1 # RESET $end
$var wire 8 $ DATA_out [7:0] $end
$var wire 8 % DATA [7:0] $end
$var wire 4 & CONTROL [3:0] $end
$var wire 1 ' CLK $end
$scope module PCIETest $end
$var wire 1 ! reset $end
$var wire 8 ( paralelo3 [7:0] $end
$var wire 8 ) paralelo2 [7:0] $end
$var wire 8 * paralelo1 [7:0] $end
$var wire 8 + paralelo0 [7:0] $end
$var wire 1 , dataserial3 $end
$var wire 1 - dataserial2 $end
$var wire 1 . dataserial1 $end
$var wire 1 / dataserial0 $end
$var wire 8 0 data3 [7:0] $end
$var wire 8 1 data2 [7:0] $end
$var wire 8 2 data1 [7:0] $end
$var wire 8 3 data0 [7:0] $end
$var wire 1 4 clk250 $end
$var wire 1 5 VALID_OUT $end
$var wire 1 6 VALID $end
$var wire 1 # RESET $end
$var wire 8 7 OUTSTRIPING [7:0] $end
$var wire 8 8 OUTMUX [7:0] $end
$var wire 8 9 DATA_out [7:0] $end
$var wire 8 : DATA [7:0] $end
$var wire 4 ; CONTROL [3:0] $end
$var wire 1 ' CLK $end
$scope module byteRX $end
$var wire 1 6 valid $end
$var wire 1 # reset $end
$var wire 8 < data_in3 [7:0] $end
$var wire 8 = data_in2 [7:0] $end
$var wire 8 > data_in1 [7:0] $end
$var wire 8 ? data_in0 [7:0] $end
$var wire 1 4 clk $end
$var reg 8 @ data [7:0] $end
$var reg 8 A data_next [7:0] $end
$var reg 8 B next_state [7:0] $end
$var reg 8 C state [7:0] $end
$upscope $end
$scope module byteTX $end
$var wire 1 6 valid $end
$var wire 1 # reset $end
$var wire 8 D data [7:0] $end
$var wire 1 4 clk $end
$var reg 8 E data_out0 [7:0] $end
$var reg 8 F data_out0_next [7:0] $end
$var reg 8 G data_out1 [7:0] $end
$var reg 8 H data_out1_next [7:0] $end
$var reg 8 I data_out2 [7:0] $end
$var reg 8 J data_out2_next [7:0] $end
$var reg 8 K data_out3 [7:0] $end
$var reg 8 L data_out3_next [7:0] $end
$var reg 3 M next_state [2:0] $end
$var reg 3 N state [2:0] $end
$upscope $end
$scope module clkbyte $end
$var wire 1 ! RESET $end
$var wire 1 ' CLK $end
$var reg 1 4 CLK_250hz $end
$var reg 5 O counter [4:0] $end
$upscope $end
$scope module mux $end
$var wire 1 4 CLK $end
$var wire 8 P Tx_Buffer [7:0] $end
$var wire 4 Q CONTROL [3:0] $end
$var reg 8 R OUT [7:0] $end
$var reg 1 6 VALID $end
$upscope $end
$scope module muxRX $end
$var wire 1 4 CLK $end
$var wire 8 S Rx_buffer [7:0] $end
$var wire 1 6 VALID $end
$var reg 8 T DATA [7:0] $end
$var reg 1 5 VALID_OUT $end
$upscope $end
$scope module parallel0 $end
$var wire 1 # RESET $end
$var wire 1 / DATA_IN $end
$var wire 1 ' CLK $end
$var reg 8 U DATA_OUT [7:0] $end
$var reg 8 V DataOut_next [7:0] $end
$var reg 1 W Start $end
$var reg 1 X Valid $end
$var reg 1 Y Valid_neg $end
$var reg 1 Z Valid_next $end
$var reg 8 [ check [7:0] $end
$var reg 7 \ rBuffer [6:0] $end
$var reg 3 ] rCurrentState [2:0] $end
$upscope $end
$scope module parallel1 $end
$var wire 1 # RESET $end
$var wire 1 . DATA_IN $end
$var wire 1 ' CLK $end
$var reg 8 ^ DATA_OUT [7:0] $end
$var reg 8 _ DataOut_next [7:0] $end
$var reg 1 ` Start $end
$var reg 1 a Valid $end
$var reg 1 b Valid_neg $end
$var reg 1 c Valid_next $end
$var reg 8 d check [7:0] $end
$var reg 7 e rBuffer [6:0] $end
$var reg 3 f rCurrentState [2:0] $end
$upscope $end
$scope module parallel2 $end
$var wire 1 # RESET $end
$var wire 1 - DATA_IN $end
$var wire 1 ' CLK $end
$var reg 8 g DATA_OUT [7:0] $end
$var reg 8 h DataOut_next [7:0] $end
$var reg 1 i Start $end
$var reg 1 j Valid $end
$var reg 1 k Valid_neg $end
$var reg 1 l Valid_next $end
$var reg 8 m check [7:0] $end
$var reg 7 n rBuffer [6:0] $end
$var reg 3 o rCurrentState [2:0] $end
$upscope $end
$scope module parallel3 $end
$var wire 1 # RESET $end
$var wire 1 , DATA_IN $end
$var wire 1 ' CLK $end
$var reg 8 p DATA_OUT [7:0] $end
$var reg 8 q DataOut_next [7:0] $end
$var reg 1 r Start $end
$var reg 1 s Valid $end
$var reg 1 t Valid_neg $end
$var reg 1 u Valid_next $end
$var reg 8 v check [7:0] $end
$var reg 7 w rBuffer [6:0] $end
$var reg 3 x rCurrentState [2:0] $end
$upscope $end
$scope module serial0 $end
$var wire 8 y DATA_IN [7:0] $end
$var wire 1 6 Valid $end
$var wire 1 # RESET $end
$var wire 1 ' CLK $end
$var reg 1 / DATA_OUT $end
$var reg 8 z rBuffer [7:0] $end
$var reg 3 { rCurrentState [2:0] $end
$upscope $end
$scope module serial1 $end
$var wire 8 | DATA_IN [7:0] $end
$var wire 1 6 Valid $end
$var wire 1 # RESET $end
$var wire 1 ' CLK $end
$var reg 1 . DATA_OUT $end
$var reg 8 } rBuffer [7:0] $end
$var reg 3 ~ rCurrentState [2:0] $end
$upscope $end
$scope module serial2 $end
$var wire 8 !" DATA_IN [7:0] $end
$var wire 1 6 Valid $end
$var wire 1 # RESET $end
$var wire 1 ' CLK $end
$var reg 1 - DATA_OUT $end
$var reg 8 "" rBuffer [7:0] $end
$var reg 3 #" rCurrentState [2:0] $end
$upscope $end
$scope module serial3 $end
$var wire 8 $" DATA_IN [7:0] $end
$var wire 1 6 Valid $end
$var wire 1 # RESET $end
$var wire 1 ' CLK $end
$var reg 1 , DATA_OUT $end
$var reg 8 %" rBuffer [7:0] $end
$var reg 3 &" rCurrentState [2:0] $end
$upscope $end
$upscope $end
$scope module probador $end
$var reg 1 ' CLK $end
$var reg 4 '" CONTROL [3:0] $end
$var reg 8 (" DATA [7:0] $end
$var reg 1 # RESET $end
$var reg 1 " Valid $end
$var reg 1 ! reset $end
$upscope $end
$upscope $end
$enddefinitions $end
#0
$dumpvars
b0 ("
bx '"
bx &"
bx %"
bx $"
bx #"
bx ""
bx !"
bx ~
bx }
bx |
bx {
bx z
bx y
bx x
bx w
bx v
xu
xt
xs
xr
bx q
bx p
bx o
bx n
bx m
xl
xk
xj
xi
bx h
bx g
bx f
bx e
bx d
xc
xb
xa
x`
bx _
bx ^
bx ]
bx \
bx [
xZ
xY
xX
xW
bx V
bx U
bx T
bx S
bx R
bx Q
b0 P
bx O
bx N
bx M
bx L
bx K
bx J
bx I
bx H
bx G
bx F
bx E
bx D
bx C
bx B
bx A
bx @
bx ?
bx >
bx =
bx <
bx ;
b0 :
bx 9
bx 8
bx 7
x6
x5
x4
bx 3
bx 2
bx 1
bx 0
x/
x.
x-
x,
bx +
bx *
bx )
bx (
0'
bx &
b0 %
bx $
1#
x"
1!
$end
#10
0W
1Y
0Z
0`
1b
0c
0i
1k
0l
0r
1t
0u
04
b0 O
b0 {
b0 ~
b0 #"
b0 &"
b0 ]
0X
b0 [
b0 f
0a
b0 d
b0 o
0j
b0 m
b0 x
0s
b0 v
1'
#20
0'
#30
1'
#40
0'
#50
1'
#60
0'
#70
1'
#80
0'
#90
1'
#100
0'
#110
1'
#120
0'
#130
1'
#140
0'
#150
1'
#160
0'
#170
1'
#180
0'
#190
1'
#200
0'
#210
1'
#220
0'
#230
1'
#240
0'
#250
1'
#260
0'
#270
1'
#280
0'
#290
1'
#300
0'
#310
1'
#320
0'
0!
#330
b1 O
1'
#340
0'
#350
b10 O
1'
#360
0'
#370
b11 O
1'
#380
0'
#390
b100 O
1'
#400
0'
#410
b101 O
1'
#420
0'
#430
b110 O
1'
#440
0'
#450
b111 O
1'
#460
0'
#470
b0 L
b0 J
b0 H
b0 F
b0 A
b10 B
b0 8
b0 D
b0 R
b0 0
b0 K
b0 $"
b0 1
b0 I
b0 !"
b0 2
b0 G
b0 |
b0 3
b0 E
b0 y
b0 M
b0 N
b0 7
b0 @
b0 S
b10 C
14
b1000 O
1'
#480
0'
#490
b1001 O
1'
#500
0'
#510
b1010 O
1'
#520
0'
#530
b1011 O
1'
#540
0'
#550
b1100 O
1'
#560
0'
#570
b1101 O
1'
#580
0'
#590
b1110 O
1'
#600
0'
#610
b1111 O
1'
#620
0'
#630
04
b0 O
1'
#640
0'
0#
#650
b1 O
b0x [
b0x d
b0x m
b0x v
1'
#660
0'
#670
b0xx v
b0xx m
b0xx d
b0xx [
b10 O
1'
#680
0'
#690
b11 O
b0xxx [
b0xxx d
b0xxx m
b0xxx v
1'
#700
0'
#710
b0xxxx v
b0xxxx m
b0xxxx d
b0xxxx [
b100 O
1'
#720
0'
#730
b101 O
b0xxxxx [
b0xxxxx d
b0xxxxx m
b0xxxxx v
1'
#740
0'
#750
b0xxxxxx v
b0xxxxxx m
b0xxxxxx d
b0xxxxxx [
b110 O
1'
#760
0'
#770
b111 O
b0xxxxxxx [
b0xxxxxxx d
b0xxxxxxx m
b0xxxxxxx v
1'
#780
0'
#790
bx v
bx m
bx d
bx [
14
b1000 O
1'
#800
0'
#810
b1001 O
1'
#820
0'
#830
b1010 O
1'
#840
0'
#850
b1011 O
1'
#860
0'
#870
b1100 O
1'
#880
0'
#890
b1101 O
1'
#900
0'
#910
b1110 O
1'
#920
0'
#930
b1111 O
1'
#940
0'
#950
04
b0 O
1'
#960
0'
#970
b1 O
1'
#980
0'
#990
b10 O
1'
#1000
0'
#1010
b11 O
1'
#1020
0'
#1030
b100 O
1'
#1040
0'
#1050
b101 O
1'
#1060
0'
#1070
b110 O
1'
#1080
0'
#1090
b111 O
1'
#1100
0'
#1110
b10111100 8
b10111100 D
b10111100 R
bx A
b100 B
16
14
b1000 O
1'
b0 &
b0 ;
b0 Q
b0 '"
#1120
0'
#1130
b1001 O
b1 {
0/
b0 z
b1 ~
0.
b0 }
b1 #"
0-
b0 ""
b1 &"
0,
b0 %"
1'
#1140
0'
#1150
bx0 v
bx0 m
bx0 d
bx0 [
b10 &"
b10 #"
b10 ~
b10 {
b1010 O
1'
#1160
0'
#1170
b1011 O
b11 {
b11 ~
b11 #"
b11 &"
bx00 [
bx00 d
bx00 m
bx00 v
1'
#1180
0'
#1190
bx000 v
bx000 m
bx000 d
bx000 [
b100 &"
b100 #"
b100 ~
b100 {
b1100 O
1'
#1200
0'
#1210
b1101 O
b101 {
b101 ~
b101 #"
b101 &"
bx0000 [
bx0000 d
bx0000 m
bx0000 v
1'
#1220
0'
#1230
bx00000 v
bx00000 m
bx00000 d
bx00000 [
b110 &"
b110 #"
b110 ~
b110 {
b1110 O
1'
#1240
0'
#1250
b1111 O
b111 {
b111 ~
b111 #"
b111 &"
bx000000 [
bx000000 d
bx000000 m
bx000000 v
1'
#1260
0'
#1270
bx0000000 v
bx0000000 m
bx0000000 d
bx0000000 [
b0 &"
b0 #"
b0 ~
b0 {
04
b0 O
1'
#1280
0'
#1290
b1 O
b1 {
b1 ~
b1 #"
b1 &"
b0 [
b0 d
b0 m
b0 v
1'
#1300
0'
#1310
b10 &"
b10 #"
b10 ~
b10 {
b10 O
1'
#1320
0'
#1330
b11 O
b11 {
b11 ~
b11 #"
b11 &"
1'
#1340
0'
#1350
b100 &"
b100 #"
b100 ~
b100 {
b100 O
1'
#1360
0'
#1370
b101 O
b101 {
b101 ~
b101 #"
b101 &"
1'
#1380
0'
#1390
b110 &"
b110 #"
b110 ~
b110 {
b110 O
1'
#1400
0'
#1410
b111 O
b111 {
b111 ~
b111 #"
b111 &"
1'
#1420
0'
#1430
b1000 B
b0 $
b0 9
b0 T
15
bx 7
bx @
bx S
b100 C
b10111100 F
b1 M
b0 &"
b0 #"
b0 ~
b0 {
14
b1000 O
1'
#1440
0'
#1450
b1001 O
b1 {
b1 ~
b1 #"
b1 &"
1'
#1460
0'
#1470
b10 &"
b10 #"
b10 ~
b10 {
b1010 O
1'
#1480
0'
#1490
b1011 O
b11 {
b11 ~
b11 #"
b11 &"
1'
#1500
0'
#1510
b100 &"
b100 #"
b100 ~
b100 {
b1100 O
1'
#1520
0'
#1530
b1101 O
b101 {
b101 ~
b101 #"
b101 &"
1'
#1540
0'
#1550
b110 &"
b110 #"
b110 ~
b110 {
b1110 O
1'
#1560
0'
#1570
b1111 O
b111 {
b111 ~
b111 #"
b111 &"
1'
#1580
0'
#1590
b0 &"
b0 #"
b0 ~
b0 {
04
b0 O
1'
#1600
0'
#1610
b1 O
b1 {
b1 ~
b1 #"
b1 &"
1'
#1620
0'
#1630
b10 &"
b10 #"
b10 ~
b10 {
b10 O
1'
#1640
0'
#1650
b11 O
b11 {
b11 ~
b11 #"
b11 &"
1'
#1660
0'
#1670
b100 &"
b100 #"
b100 ~
b100 {
b100 O
1'
#1680
0'
#1690
b101 O
b101 {
b101 ~
b101 #"
b101 &"
1'
#1700
0'
#1710
b110 &"
b110 #"
b110 ~
b110 {
b110 O
1'
#1720
0'
#1730
b111 O
b111 {
b111 ~
b111 #"
b111 &"
1'
#1740
0'
#1750
b10000 B
b10111100 3
b10111100 E
b10111100 y
b1 N
b1000 C
bx $
bx 9
bx T
b0 &"
b0 #"
b0 ~
b0 {
14
b1000 O
1'
#1760
0'
#1770
b1001 O
b1 {
1/
b10111100 z
b1 ~
b1 #"
b1 &"
1'
#1780
0'
#1790
b1 [
b10 &"
b10 #"
b10 ~
b10 {
0/
b1010 O
1'
#1800
0'
#1810
b1011 O
b11 {
1/
b11 ~
b11 #"
b11 &"
b10 [
1'
#1820
0'
#1830
b101 [
b100 &"
b100 #"
b100 ~
b100 {
b1100 O
1'
#1840
0'
#1850
b1101 O
b101 {
b101 ~
b101 #"
b101 &"
b1011 [
1'
#1860
0'
#1870
b10111 [
b110 &"
b110 #"
b110 ~
b110 {
b1110 O
1'
#1880
0'
#1890
b1111 O
b111 {
0/
b111 ~
b111 #"
b111 &"
b101111 [
1'
#1900
0'
#1910
b1011110 [
b0 &"
b0 #"
b0 ~
b0 {
04
b0 O
1'
#1920
0'
#1930
b10111100 V
1W
1Z
b1 O
b1 {
1/
b1 ~
b1 #"
b1 &"
b10111100 [
1'
#1940
0'
#1950
0W
0Y
b10000 B
b1 ]
b1xxxxxx \
1X
b10111100 +
b10111100 ?
b10111100 U
b10 &"
b10 #"
b10 ~
b10 {
0/
b10 O
1'
#1960
0'
#1970
b11 O
b11 {
1/
b11 ~
b11 #"
b11 &"
b10 ]
b10xxxxx \
1'
#1980
0'
#1990
b11 ]
b101xxxx \
b100 &"
b100 #"
b100 ~
b100 {
b100 O
1'
#2000
0'
#2010
b101 O
b101 {
b101 ~
b101 #"
b101 &"
b100 ]
b1011xxx \
1'
#2020
0'
#2030
b101 ]
b10111xx \
b110 &"
b110 #"
b110 ~
b110 {
b110 O
1'
#2040
0'
#2050
b111 O
b111 {
0/
b111 ~
b111 #"
b111 &"
b110 ]
b101111x \
1'
#2060
0'
#2070
b10111100 A
b10 B
b10000 C
b10111100 H
b10 M
b111 ]
b1011110 \
b0 &"
b0 #"
b0 ~
b0 {
14
b1000 O
1'
#2080
0'
#2090
b1001 O
b1 {
1/
b1 ~
b1 #"
b1 &"
b0 ]
1'
#2100
0'
#2110
b1 ]
b10 &"
b10 #"
b10 ~
b10 {
0/
b1010 O
1'
#2120
0'
#2130
b1011 O
b11 {
1/
b11 ~
b11 #"
b11 &"
b10 ]
1'
#2140
0'
#2150
b11 ]
b100 &"
b100 #"
b100 ~
b100 {
b1100 O
1'
#2160
0'
#2170
b1101 O
b101 {
b101 ~
b101 #"
b101 &"
b100 ]
1'
#2180
0'
#2190
b101 ]
b110 &"
b110 #"
b110 ~
b110 {
b1110 O
1'
#2200
0'
#2210
b1111 O
b111 {
0/
b111 ~
b111 #"
b111 &"
b110 ]
1'
#2220
0'
#2230
b111 ]
b0 &"
b0 #"
b0 ~
b0 {
04
b0 O
1'
#2240
0'
#2250
b1 O
b1 {
1/
b1 ~
b1 #"
b1 &"
b0 ]
1'
#2260
0'
#2270
b1 ]
b10 &"
b10 #"
b10 ~
b10 {
0/
b10 O
1'
#2280
0'
#2290
b11 O
b11 {
1/
b11 ~
b11 #"
b11 &"
b10 ]
1'
#2300
0'
#2310
b11 ]
b100 &"
b100 #"
b100 ~
b100 {
b100 O
1'
#2320
0'
#2330
b101 O
b101 {
b101 ~
b101 #"
b101 &"
b100 ]
1'
#2340
0'
#2350
b101 ]
b110 &"
b110 #"
b110 ~
b110 {
b110 O
1'
#2360
0'
#2370
b111 O
b111 {
0/
b111 ~
b111 #"
b111 &"
b110 ]
1'
#2380
0'
#2390
bx A
b100 B
b11110111 8
b11110111 D
b11110111 R
b10111100 2
b10111100 G
b10111100 |
b10 N
b10111100 7
b10111100 @
b10111100 S
b10 C
b111 ]
b0 &"
b0 #"
b0 ~
b0 {
14
b1000 O
1'
b1 &
b1 ;
b1 Q
b1 '"
#2400
0'
#2410
b1001 O
b1 {
1/
b1 ~
1.
b10111100 }
b1 #"
b1 &"
b0 ]
1'
#2420
0'
#2430
b1 d
b1 ]
b10 &"
b10 #"
b10 ~
0.
b10 {
0/
b1010 O
1'
#2440
0'
#2450
b1011 O
b11 {
1/
b11 ~
1.
b11 #"
b11 &"
b10 ]
b10 d
1'
#2460
0'
#2470
b101 d
b11 ]
b100 &"
b100 #"
b100 ~
b100 {
b1100 O
1'
#2480
0'
#2490
b1101 O
b101 {
b101 ~
b101 #"
b101 &"
b100 ]
b1011 d
1'
#2500
0'
#2510
b10111 d
b101 ]
b110 &"
b110 #"
b110 ~
b110 {
b1110 O
1'
#2520
0'
#2530
b1111 O
b111 {
0/
b111 ~
0.
b111 #"
b111 &"
b110 ]
b101111 d
1'
#2540
0'
#2550
b1011110 d
b111 ]
b0 &"
b0 #"
b0 ~
b0 {
04
b0 O
1'
#2560
0'
#2570
b10111100 _
1`
1c
b1 O
b1 {
1/
b1 ~
1.
b1 #"
b1 &"
b0 ]
b10111100 d
1'
#2580
0'
#2590
0`
0b
b10111100 A
b100 B
b1 f
b1xxxxxx e
1a
b10111100 *
b10111100 >
b10111100 ^
b1 ]
b10 &"
b10 #"
b10 ~
0.
b10 {
0/
b10 O
1'
#2600
0'
#2610
b11 O
b11 {
1/
b11 ~
1.
b11 #"
b11 &"
b10 ]
b10 f
b10xxxxx e
1'
#2620
0'
#2630
b11 f
b101xxxx e
b11 ]
b100 &"
b100 #"
b100 ~
b100 {
b100 O
1'
#2640
0'
#2650
b101 O
b101 {
b101 ~
b101 #"
b101 &"
b100 ]
b100 f
b1011xxx e
1'
#2660
0'
#2670
b101 f
b10111xx e
b101 ]
b110 &"
b110 #"
b110 ~
b110 {
b110 O
1'
#2680
0'
#2690
b111 O
b111 {
0/
b111 ~
0.
b111 #"
b111 &"
b110 ]
b110 f
b101111x e
1'
#2700
0'
#2710
bx A
b1000 B
b10111100 $
b10111100 9
b10111100 T
b100 C
b11100 8
b11100 D
b11100 R
b11110111 J
b11 M
b111 f
b1011110 e
b111 ]
b0 &"
b0 #"
b0 ~
b0 {
14
b1000 O
1'
b10 &
b10 ;
b10 Q
b10 '"
#2720
0'
#2730
b1001 O
b1 {
1/
b1 ~
1.
b1 #"
b1 &"
b0 ]
b0 f
1'
#2740
0'
#2750
b1 f
b1 ]
b10 &"
b10 #"
b10 ~
0.
b10 {
0/
b1010 O
1'
#2760
0'
#2770
b1011 O
b11 {
1/
b11 ~
1.
b11 #"
b11 &"
b10 ]
b10 f
1'
#2780
0'
#2790
b11 f
b11 ]
b100 &"
b100 #"
b100 ~
b100 {
b1100 O
1'
#2800
0'
#2810
b1101 O
b101 {
b101 ~
b101 #"
b101 &"
b100 ]
b100 f
1'
#2820
0'
#2830
b101 f
b101 ]
b110 &"
b110 #"
b110 ~
b110 {
b1110 O
1'
#2840
0'
#2850
b1111 O
b111 {
0/
b111 ~
0.
b111 #"
b111 &"
b110 ]
b110 f
1'
#2860
0'
#2870
b111 f
b111 ]
b0 &"
b0 #"
b0 ~
b0 {
04
b0 O
1'
#2880
0'
#2890
b1 O
b1 {
1/
b1 ~
1.
b1 #"
b1 &"
b0 ]
b0 f
1'
#2900
0'
#2910
b1 f
b1 ]
b10 &"
b10 #"
b10 ~
0.
b10 {
0/
b10 O
1'
#2920
0'
#2930
b11 O
b11 {
1/
b11 ~
1.
b11 #"
b11 &"
b10 ]
b10 f
1'
#2940
0'
#2950
b11 f
b11 ]
b100 &"
b100 #"
b100 ~
b100 {
b100 O
1'
#2960
0'
#2970
b101 O
b101 {
b101 ~
b101 #"
b101 &"
b100 ]
b100 f
1'
#2980
0'
#2990
b101 f
b101 ]
b110 &"
b110 #"
b110 ~
b110 {
b110 O
1'
#3000
0'
#3010
b111 O
b111 {
0/
b111 ~
0.
b111 #"
b111 &"
b110 ]
b110 f
1'
#3020
0'
#3030
b10000 B
b11111011 8
b11111011 D
b11111011 R
b11100 1
b11100 I
b11100 !"
b11 N
bx 7
bx @
bx S
b1000 C
b11100 J
b111 f
b111 ]
b0 &"
b0 #"
b0 ~
b0 {
14
b1000 O
1'
b11 &
b11 ;
b11 Q
b11 '"
#3040
0'
#3050
b1001 O
b1 {
1/
b1 ~
1.
b1 #"
b11100 ""
b1 &"
b0 ]
b0 f
1'
#3060
0'
#3070
b1 f
b1 ]
b10 &"
b10 #"
b10 ~
0.
b10 {
0/
b1010 O
1'
#3080
0'
#3090
b1011 O
b11 {
1/
b11 ~
1.
b11 #"
b11 &"
b10 ]
b10 f
1'
#3100
0'
#3110
b11 f
b11 ]
b100 &"
b100 #"
1-
b100 ~
b100 {
b1100 O
1'
#3120
0'
#3130
b1101 O
b101 {
b101 ~
b101 #"
b101 &"
b100 ]
b100 f
b1 m
1'
#3140
0'
#3150
b11 m
b101 f
b101 ]
b110 &"
b110 #"
b110 ~
b110 {
b1110 O
1'
#3160
0'
#3170
b1111 O
b111 {
0/
b111 ~
0.
b111 #"
0-
b111 &"
b110 ]
b110 f
b111 m
1'
#3180
0'
#3190
b1110 m
b111 f
b111 ]
b0 &"
b0 #"
b0 ~
b0 {
04
b0 O
1'
#3200
0'
#3210
b1 O
b1 {
1/
b1 ~
1.
b1 #"
b1 &"
b0 ]
b0 f
b11100 m
1'
#3220
0'
#3230
b111000 m
b1 f
b1 ]
b10 &"
b10 #"
b10 ~
0.
b10 {
0/
b10 O
1'
#3240
0'
#3250
b11 O
b11 {
1/
b11 ~
1.
b11 #"
b11 &"
b10 ]
b10 f
b1110000 m
1'
#3260
0'
#3270
b11100000 m
b11 f
b11 ]
b100 &"
b100 #"
1-
b100 ~
b100 {
b100 O
1'
#3280
0'
#3290
b101 O
b101 {
b101 ~
b101 #"
b101 &"
b100 ]
b100 f
b11000001 m
1'
#3300
0'
#3310
b10000011 m
b101 f
b101 ]
b110 &"
b110 #"
b110 ~
b110 {
b110 O
1'
#3320
0'
#3330
b111 O
b111 {
0/
b111 ~
0.
b111 #"
0-
b111 &"
b110 ]
b110 f
b111 m
1'
#3340
0'
#3350
b10111100 A
b10 B
bx $
bx 9
bx T
b10000 C
b1011100 8
b1011100 D
b1011100 R
b11111011 L
b0 M
b1110 m
b111 f
b111 ]
b0 &"
b0 #"
b0 ~
b0 {
14
b1000 O
1'
b100 &
b100 ;
b100 Q
b100 '"
#3360
0'
#3370
b1001 O
b1 {
1/
b1 ~
1.
b1 #"
b1 &"
b0 ]
b0 f
b11100 m
1'
#3380
0'
#3390
b111000 m
b1 f
b1 ]
b10 &"
b10 #"
b10 ~
0.
b10 {
0/
b1010 O
1'
#3400
0'
#3410
b1011 O
b11 {
1/
b11 ~
1.
b11 #"
b11 &"
b10 ]
b10 f
b1110000 m
1'
#3420
0'
#3430
b11100000 m
b11 f
b11 ]
b100 &"
b100 #"
1-
b100 ~
b100 {
b1100 O
1'
#3440
0'
#3450
b1101 O
b101 {
b101 ~
b101 #"
b101 &"
b100 ]
b100 f
b11000001 m
1'
#3460
0'
#3470
b10000011 m
b101 f
b101 ]
b110 &"
b110 #"
b110 ~
b110 {
b1110 O
1'
#3480
0'
#3490
b1111 O
b111 {
0/
b111 ~
0.
b111 #"
0-
b111 &"
b110 ]
b110 f
b111 m
1'
#3500
0'
#3510
b1110 m
b111 f
b111 ]
b0 &"
b0 #"
b0 ~
b0 {
04
b0 O
1'
#3520
0'
#3530
b1 O
b1 {
1/
b1 ~
1.
b1 #"
b1 &"
b0 ]
b0 f
b11100 m
1'
#3540
0'
#3550
b111000 m
b1 f
b1 ]
b10 &"
b10 #"
b10 ~
0.
b10 {
0/
b10 O
1'
#3560
0'
#3570
b11 O
b11 {
1/
b11 ~
1.
b11 #"
b11 &"
b10 ]
b10 f
b1110000 m
1'
#3580
0'
#3590
b11100000 m
b11 f
b11 ]
b100 &"
b100 #"
1-
b100 ~
b100 {
b100 O
1'
#3600
0'
#3610
b101 O
b101 {
b101 ~
b101 #"
b101 &"
b100 ]
b100 f
b11000001 m
1'
#3620
0'
#3630
b10000011 m
b101 f
b101 ]
b110 &"
b110 #"
b110 ~
b110 {
b110 O
1'
#3640
0'
#3650
b111 O
b111 {
0/
b111 ~
0.
b111 #"
0-
b111 &"
b110 ]
b110 f
b111 m
1'
#3660
0'
#3670
b100 B
b10101010 8
b10101010 D
b10101010 R
b1011100 0
b1011100 K
b1011100 $"
b0 N
b10111100 7
b10111100 @
b10111100 S
b10 C
b1011100 L
b1110 m
b111 f
b111 ]
b0 &"
b0 #"
b0 ~
b0 {
14
b1000 O
1'
b10101010 %
b10101010 :
b10101010 P
b10101010 ("
b1001 &
b1001 ;
b1001 Q
b1001 '"
#3680
0'
#3690
b1001 O
b1 {
1/
b1 ~
1.
b1 #"
b1 &"
b1011100 %"
b0 ]
b0 f
b11100 m
1'
#3700
0'
#3710
b111000 m
b1 f
b1 ]
b10 &"
1,
b10 #"
b10 ~
0.
b10 {
0/
b1010 O
1'
#3720
0'
#3730
b1011 O
b11 {
1/
b11 ~
1.
b11 #"
b11 &"
0,
b10 ]
b10 f
b1110000 m
b1 v
1'
#3740
0'
#3750
b10 v
b11100000 m
b11 f
b11 ]
b100 &"
1,
b100 #"
1-
b100 ~
b100 {
b1100 O
1'
#3760
0'
#3770
b1101 O
b101 {
b101 ~
b101 #"
b101 &"
b100 ]
b100 f
b11000001 m
b101 v
1'
#3780
0'
#3790
b1011 v
b10000011 m
b101 f
b101 ]
b110 &"
b110 #"
b110 ~
b110 {
b1110 O
1'
#3800
0'
#3810
b1111 O
b111 {
0/
b111 ~
0.
b111 #"
0-
b111 &"
0,
b110 ]
b110 f
b111 m
b10111 v
1'
#3820
0'
#3830
b101110 v
b1110 m
b111 f
b111 ]
b0 &"
b0 #"
b0 ~
b0 {
04
b0 O
1'
#3840
0'
#3850
b1 O
b1 {
1/
b1 ~
1.
b1 #"
b1 &"
b0 ]
b0 f
b11100 m
b1011100 v
1'
#3860
0'
#3870
b10111000 v
b111000 m
b1 f
b1 ]
b10 &"
1,
b10 #"
b10 ~
0.
b10 {
0/
b10 O
1'
#3880
0'
#3890
b11 O
b11 {
1/
b11 ~
1.
b11 #"
b11 &"
0,
b10 ]
b10 f
b1110000 m
b1110001 v
1'
#3900
0'
#3910
b11100010 v
b11100000 m
b11 f
b11 ]
b100 &"
1,
b100 #"
1-
b100 ~
b100 {
b100 O
1'
#3920
0'
#3930
b101 O
b101 {
b101 ~
b101 #"
b101 &"
b100 ]
b100 f
b11000001 m
b11000101 v
1'
#3940
0'
#3950
b10001011 v
b10000011 m
b101 f
b101 ]
b110 &"
b110 #"
b110 ~
b110 {
b110 O
1'
#3960
0'
#3970
b111 O
b111 {
0/
b111 ~
0.
b111 #"
0-
b111 &"
0,
b110 ]
b110 f
b111 m
b10111 v
1'
#3980
0'
#3990
bx A
b1000 B
b10111100 $
b10111100 9
b10111100 T
b100 C
b10111011 8
b10111011 D
b10111011 R
b10101010 F
b1 M
b101110 v
b1110 m
b111 f
b111 ]
b0 &"
b0 #"
b0 ~
b0 {
14
b1000 O
1'
b10111011 %
b10111011 :
b10111011 P
b10111011 ("
#4000
0'
#4010
b1001 O
b1 {
1/
b1 ~
1.
b1 #"
b1 &"
b0 ]
b0 f
b11100 m
b1011100 v
1'
#4020
0'
#4030
b10111000 v
b111000 m
b1 f
b1 ]
b10 &"
1,
b10 #"
b10 ~
0.
b10 {
0/
b1010 O
1'
#4040
0'
#4050
b1011 O
b11 {
1/
b11 ~
1.
b11 #"
b11 &"
0,
b10 ]
b10 f
b1110000 m
b1110001 v
1'
#4060
0'
#4070
b11100010 v
b11100000 m
b11 f
b11 ]
b100 &"
1,
b100 #"
1-
b100 ~
b100 {
b1100 O
1'
#4080
0'
#4090
b1101 O
b101 {
b101 ~
b101 #"
b101 &"
b100 ]
b100 f
b11000001 m
b11000101 v
1'
#4100
0'
#4110
b10001011 v
b10000011 m
b101 f
b101 ]
b110 &"
b110 #"
b110 ~
b110 {
b1110 O
1'
#4120
0'
#4130
b1111 O
b111 {
0/
b111 ~
0.
b111 #"
0-
b111 &"
0,
b110 ]
b110 f
b111 m
b10111 v
1'
#4140
0'
#4150
b101110 v
b1110 m
b111 f
b111 ]
b0 &"
b0 #"
b0 ~
b0 {
04
b0 O
1'
#4160
0'
#4170
b1 O
b1 {
1/
b1 ~
1.
b1 #"
b1 &"
b0 ]
b0 f
b11100 m
b1011100 v
1'
#4180
0'
#4190
b10111000 v
b111000 m
b1 f
b1 ]
b10 &"
1,
b10 #"
b10 ~
0.
b10 {
0/
b10 O
1'
#4200
0'
